{
  "treeMenu" : {
    "_id" : "wm-treeMenu-wm.Variable-1472669589556",
    "name" : "treeMenu",
    "owner" : "Page",
    "category" : "wm.Variable",
    "dataBinding" : [ ],
    "dataSet" : {
      "label" : "Product Menu",
      "children" : [ {
        "label" : "LARGE CIGARS",
        "line_code" : "B",
        "children" : [ {
          "label" : "SS TINS",
          "cate_code" : "BER8",
          "line_code" : "B",
          "children" : [ {
            "label" : "CIGARILLO GRANDE",
            "subcate_code" : "CIGGRN"
          }, {
            "label" : "CIGARILLO GRANDE PEACH",
            "subcate_code" : "CGRNPH"
          }, {
            "label" : "CIGARILLO GRANDE STRAWBERRY",
            "subcate_code" : "CGRNST"
          }, {
            "label" : "SS MINI CIGARILLO TIN",
            "subcate_code" : "MINCIG"
          } ]
        }, {
          "label" : "CLASICO",
          "cate_code" : "CLASS",
          "line_code" : "MB",
          "children" : [ {
            "label" : "NUMERO II",
            "subcate_code" : "NUMII"
          }, {
            "label" : "VANILLA",
            "subcate_code" : "VANILL"
          } ]
        }, {
          "label" : "KEEP MOVING & GOODIES",
          "cate_code" : "KMV",
          "line_code" : "O",
          "children" : [ {
            "label" : "GOODIES CIGARILLO CANDELA",
            "subcate_code" : "GCCAND"
          }, {
            "label" : "GOODIES CIGARILLO GRAPE",
            "subcate_code" : "GCGLGR"
          }, {
            "label" : "GOODIES CIGARILLO NATURAL",
            "subcate_code" : "GCGLNA"
          }, {
            "label" : "GOODIES CIGARILLO VANILLA",
            "subcate_code" : "GCGLVA"
          }, {
            "label" : "KEEP MOVING",
            "subcate_code" : "KMV"
          } ]
        }, {
          "label" : "ACID",
          "cate_code" : "ACID",
          "line_code" : "S",
          "children" : [ {
            "label" : "ACID CIGARILLOS BLUE",
            "subcate_code" : "ACIDBL"
          }, {
            "label" : "ACID CIGARILLOS GREEN",
            "subcate_code" : "ACIDGR"
          }, {
            "label" : "ACID CIGARILLOS RED",
            "subcate_code" : "ACIDRE"
          }, {
            "label" : "COMBO",
            "subcate_code" : "COMBO"
          } ]
        }, {
          "label" : "BLACKSTONE",
          "cate_code" : "BLKSTN",
          "line_code" : "S",
          "children" : [ {
            "label" : "COMBO",
            "subcate_code" : "COMBO"
          }, {
            "label" : "TIP CIGARILLO CHERRY",
            "subcate_code" : "CHERRY"
          }, {
            "label" : "TIP CIGARILLO PEACH",
            "subcate_code" : "PEACHT"
          }, {
            "label" : "TIP CIGARILLO VANILLA",
            "subcate_code" : "MILD"
          }, {
            "label" : "TIP CIGARILLO WINE",
            "subcate_code" : "WINETP"
          } ]
        }, {
          "label" : "KING EDWARD CIGARS",
          "cate_code" : "KE",
          "line_code" : "S",
          "children" : [ {
            "label" : "COMBO",
            "subcate_code" : "COMBO"
          }, {
            "label" : "IMPERIALS",
            "subcate_code" : "IMPER"
          }, {
            "label" : "KE HAND ROLLED NATURAL",
            "subcate_code" : "KEHRNA"
          }, {
            "label" : "KE HAND ROLLED VANILLA",
            "subcate_code" : "KEHRVA"
          }, {
            "label" : "SPECIALS",
            "subcate_code" : "SPEC"
          } ]
        }, {
          "label" : "MISCELLANEOUS CIGARS",
          "cate_code" : "MISC",
          "line_code" : "S",
          "children" : [ {
            "label" : "COMBO",
            "subcate_code" : "COMBO"
          }, {
            "label" : "POM POM GRAPE OPERA",
            "subcate_code" : "MIPPGP"
          }, {
            "label" : "POM POM OPERAS",
            "subcate_code" : "MISCPP"
          }, {
            "label" : "POM POM WHITE GRAPE OPERA",
            "subcate_code" : "MIPWGP"
          }, {
            "label" : "SS BLK CHERRY TIP CIGARILLO",
            "subcate_code" : "SSBLKC"
          }, {
            "label" : "SS BLK SMOOTH TIP CIGARILLO",
            "subcate_code" : "SSBLKS"
          } ]
        }, {
          "label" : "SWISHER SWEETS CIGARS",
          "cate_code" : "SS",
          "line_code" : "S",
          "children" : [ {
            "label" : "BLUNTS",
            "subcate_code" : "BLUNTS"
          }, {
            "label" : "CIGARILLO BLACK",
            "subcate_code" : "SSBLAC"
          }, {
            "label" : "CIGARILLO BLUEBERRY",
            "subcate_code" : "CIGBB"
          }, {
            "label" : "CIGARILLO CALYPSO CREAM",
            "subcate_code" : "CIGCAL"
          }, {
            "label" : "CIGARILLO CHOCOLATE",
            "subcate_code" : "CHOCIG"
          }, {
            "label" : "CIGARILLO DIAMONDS",
            "subcate_code" : "CIGDIA"
          }, {
            "label" : "CIGARILLO DULCE DE LECHE",
            "subcate_code" : "CIGDUL"
          }, {
            "label" : "CIGARILLO GRAPE",
            "subcate_code" : "CIGGRP"
          }, {
            "label" : "CIGARILLO GREEN SWEET",
            "subcate_code" : "CIGGRE"
          }, {
            "label" : "CIGARILLO PEACH",
            "subcate_code" : "CIGPCH"
          }, {
            "label" : "CIGARILLO STRAWBERRY",
            "subcate_code" : "STRCIG"
          }, {
            "label" : "CIGARILLO SUMMER TWIST",
            "subcate_code" : "CIGSUM"
          }, {
            "label" : "CIGARILLO WHITE GRAPE",
            "subcate_code" : "CIWGRP"
          }, {
            "label" : "CIGARILLO WILD RUSH",
            "subcate_code" : "CIGWRU"
          }, {
            "label" : "CIGARILLO WINE",
            "subcate_code" : "CIGWIN"
          }, {
            "label" : "CIGARILLOS",
            "subcate_code" : "CIGARI"
          }, {
            "label" : "CIGARILLOS TROPICAL FUSION",
            "subcate_code" : "CIGTRP"
          }, {
            "label" : "COMBO",
            "subcate_code" : "COMBO"
          }, {
            "label" : "CORONELLA",
            "subcate_code" : "CORONE"
          }, {
            "label" : "GIANTS",
            "subcate_code" : "GIANTS"
          }, {
            "label" : "KINGS",
            "subcate_code" : "KINGS"
          }, {
            "label" : "MINI BLUEBERRY CIGARILLO",
            "subcate_code" : "MINIBB"
          }, {
            "label" : "MINI CIGARILLO",
            "subcate_code" : "MINI"
          }, {
            "label" : "MINI GRAPE CIGARILLO",
            "subcate_code" : "MINGRP"
          }, {
            "label" : "MINI ISLAND BASH",
            "subcate_code" : "MINISL"
          }, {
            "label" : "MINI PEACH CIGARILLO",
            "subcate_code" : "MINPCH"
          }, {
            "label" : "MINI STICKY SWEET",
            "subcate_code" : "MINISS"
          }, {
            "label" : "MINI STRAWBERRY CIGARILLO",
            "subcate_code" : "MINSTW"
          }, {
            "label" : "MINI TROPICAL STORM",
            "subcate_code" : "MINTRO"
          }, {
            "label" : "MINI WHITE GRAPE CIGARILLO",
            "subcate_code" : "MINWGP"
          }, {
            "label" : "MINI WINE CIGARILLO",
            "subcate_code" : "MINWIN"
          }, {
            "label" : "OUTLAWS",
            "subcate_code" : "OUTLAW"
          }, {
            "label" : "OUTLAWS DOUBLE BARREL RUM",
            "subcate_code" : "OUTDBR"
          }, {
            "label" : "PERFECTOS",
            "subcate_code" : "PERFEC"
          }, {
            "label" : "SLIMS",
            "subcate_code" : "SLIMS"
          }, {
            "label" : "TIP CIGARILLO",
            "subcate_code" : "TIPCIG"
          }, {
            "label" : "TIP CIGARILLO CHERRY",
            "subcate_code" : "TIPCHY"
          }, {
            "label" : "WOOD TIP ORIGINAL",
            "subcate_code" : "WOODTP"
          } ]
        } ]
      }, {
        "label" : "LITTLE CIGARS",
        "line_code" : "OS",
        "children" : [ {
          "label" : "LITTLE CIGARS SS",
          "cate_code" : "LITCIG",
          "line_code" : "OS",
          "children" : [ {
            "label" : "SS LITTLE CIGAR GRAPE",
            "subcate_code" : "LCGRP"
          }, {
            "label" : "SS LITTLE CIGARS CHERRY",
            "subcate_code" : "LITCCH"
          }, {
            "label" : "SS LITTLE CIGARS MENTHOL",
            "subcate_code" : "LITCIM"
          }, {
            "label" : "SS LITTLE CIGARS PEACH",
            "subcate_code" : "LITCIP"
          }, {
            "label" : "SS LITTLE CIGARS REGULAR",
            "subcate_code" : "LITCIG"
          }, {
            "label" : "SS LITTLE CIGARS STRAWBERRY",
            "subcate_code" : "LITCIS"
          }, {
            "label" : "SS LITTLE CIGARS WHITE",
            "subcate_code" : "LITCIL"
          } ]
        }, {
          "label" : "SS HARDPACK LITTLE CIGAR",
          "cate_code" : "SSFTLC",
          "line_code" : "OS",
          "children" : [ {
            "label" : "SS HARDPACK LITTLE CIG MENTHOL",
            "subcate_code" : "SSFTM"
          }, {
            "label" : "SS HARDPACK LITTLE CIG SILVER",
            "subcate_code" : "SSFTS"
          }, {
            "label" : "SS HARDPACK LITTLE CIGAR",
            "subcate_code" : "SSFT"
          } ]
        } ]
      }, {
        "label" : "FILTERED CIGARS",
        "line_code" : "FC",
        "children" : [ {
          "label" : "BLACKSTONE FILTERED CIGAR",
          "cate_code" : "BSFIL",
          "line_code" : "FC",
          "children" : [ {
            "label" : "BKST CHERRY FILTERED CIGAR",
            "subcate_code" : "BSFICH"
          }, {
            "label" : "BKST VANILLA FILTERED CIGAR",
            "subcate_code" : "BSFIVA"
          } ]
        }, {
          "label" : "KING EDWARD FILTERED CIGAR",
          "cate_code" : "KEFIL",
          "line_code" : "FC",
          "children" : [ {
            "label" : "KE CHERRY FILTERED CIGAR",
            "subcate_code" : "KEFICH"
          }, {
            "label" : "KE MENTHOL FILTERD CIGAR",
            "subcate_code" : "KEFIIM"
          }, {
            "label" : "KE REGULAR FILTERED CIGAR",
            "subcate_code" : "KEFIRG"
          } ]
        }, {
          "label" : "SANTA FE FILTERED CIGAR",
          "cate_code" : "SFFIL",
          "line_code" : "FC",
          "children" : [ {
            "label" : "SAN FE CHERRY FILTERED CIGAR",
            "subcate_code" : "SFFCHY"
          }, {
            "label" : "SAN FE GRAPE FILTERED CIGAR",
            "subcate_code" : "SFFIGP"
          }, {
            "label" : "SAN FE MENTH WHITE FC CIGAR",
            "subcate_code" : "SFFIMM"
          }, {
            "label" : "SAN FE MENTHOL FILTERED CIGAR",
            "subcate_code" : "SFFIME"
          }, {
            "label" : "SAN FE PEACH FILTERED CIGAR",
            "subcate_code" : "SFFIPE"
          }, {
            "label" : "SAN FE REGULAR FILTERED CIGAR",
            "subcate_code" : "SFFIRG"
          }, {
            "label" : "SAN FE STRAW FILTERED CIGAR",
            "subcate_code" : "SFFISW"
          }, {
            "label" : "SAN FE WHITE FILTERED CIGAR",
            "subcate_code" : "SFFIML"
          } ]
        }, {
          "label" : "SS & SS BLK FILTERED CIGAR",
          "cate_code" : "FLTSS",
          "line_code" : "FC",
          "children" : [ {
            "label" : "FILTER TIPS MENTHOL",
            "subcate_code" : "FILTPM"
          }, {
            "label" : "FILTER TIPS SILVER",
            "subcate_code" : "FILTPS"
          }, {
            "label" : "FILTER TIPS SWEET",
            "subcate_code" : "FILTIP"
          }, {
            "label" : "SS BLK FILTER TIP",
            "subcate_code" : "BLKFIL"
          } ]
        } ]
      }, {
        "label" : "SMOKELESS",
        "line_code" : "H",
        "children" : [ {
          "label" : "CHEW",
          "cate_code" : "CHEW",
          "line_code" : "H",
          "children" : [ {
            "label" : "BOWIE CHEW",
            "subcate_code" : "SBOWC3"
          }, {
            "label" : "CHATTANOOGA CHEW",
            "subcate_code" : "CHATC"
          }, {
            "label" : "COMBO",
            "subcate_code" : "COMBO"
          }, {
            "label" : "LANCASTER",
            "subcate_code" : "LANC"
          }, {
            "label" : "MAIL POUCH",
            "subcate_code" : "MAILP"
          }, {
            "label" : "STARR VALUE CHEW",
            "subcate_code" : "STARC3"
          }, {
            "label" : "STARR VALUE CHEW PEACH",
            "subcate_code" : "STARP3"
          } ]
        }, {
          "label" : "DRY SNUFF",
          "cate_code" : "DRY",
          "line_code" : "H",
          "children" : [ {
            "label" : "BUTTERCUP",
            "subcate_code" : "BUTCUP"
          }, {
            "label" : "CHECKERBERRY",
            "subcate_code" : "CHECK"
          }, {
            "label" : "DIXIE SWEET",
            "subcate_code" : "DIXSW"
          }, {
            "label" : "HONEY BEE",
            "subcate_code" : "HONBEE"
          }, {
            "label" : "LOR SWEET",
            "subcate_code" : "LORSW"
          }, {
            "label" : "NAVY PLAIN",
            "subcate_code" : "NAVYP"
          }, {
            "label" : "NAVY SWEET",
            "subcate_code" : "NAVYS"
          }, {
            "label" : "R R MACBOY",
            "subcate_code" : "RRMAC"
          }, {
            "label" : "R R PLAIN",
            "subcate_code" : "RRP"
          }, {
            "label" : "R R SWEET",
            "subcate_code" : "RRS"
          }, {
            "label" : "RALPHS",
            "subcate_code" : "RALPHS"
          }, {
            "label" : "SOCIETY",
            "subcate_code" : "SOCIET"
          }, {
            "label" : "SQUARE",
            "subcate_code" : "SQUARE"
          }, {
            "label" : "STARRS",
            "subcate_code" : "STARRS"
          }, {
            "label" : "STRAWBERRY",
            "subcate_code" : "STRAWB"
          }, {
            "label" : "SUPERIOR",
            "subcate_code" : "SUPER"
          }, {
            "label" : "T T STRONG",
            "subcate_code" : "TTST"
          }, {
            "label" : "T T SWEET",
            "subcate_code" : "TT"
          }, {
            "label" : "TOPS MILD",
            "subcate_code" : "TOPSM"
          }, {
            "label" : "TOPS SWEET",
            "subcate_code" : "TOPS"
          }, {
            "label" : "WILDCHERRY",
            "subcate_code" : "WILDCH"
          } ]
        }, {
          "label" : "MOIST SNUFF",
          "cate_code" : "MOIST",
          "line_code" : "H",
          "children" : [ {
            "label" : "COMBO",
            "subcate_code" : "COMBO"
          }, {
            "label" : "COOPER",
            "subcate_code" : "COOPER"
          }, {
            "label" : "GOLD RIVER",
            "subcate_code" : "GLDRIV"
          }, {
            "label" : "KAYAK APPLE",
            "subcate_code" : "KAYAPP"
          }, {
            "label" : "KAYAK FINE CUT WINTERGREEN",
            "subcate_code" : "KAYFCW"
          }, {
            "label" : "KAYAK GRAPE",
            "subcate_code" : "KAYGRP"
          }, {
            "label" : "KAYAK LONG CUT STRAIGHT",
            "subcate_code" : "KAYSTR"
          }, {
            "label" : "KAYAK MINT",
            "subcate_code" : "KAYMNT"
          }, {
            "label" : "KAYAK NATURAL",
            "subcate_code" : "KAYNAT"
          }, {
            "label" : "KAYAK NATURAL POUCH",
            "subcate_code" : "KYPNAT"
          }, {
            "label" : "KAYAK PEACH",
            "subcate_code" : "KAYPCH"
          }, {
            "label" : "KAYAK STRAIGHT POUCH",
            "subcate_code" : "KYPSTG"
          }, {
            "label" : "KAYAK WINTERGREEN",
            "subcate_code" : "KAYWGN"
          }, {
            "label" : "KAYAK WINTERGREEN POUCH",
            "subcate_code" : "KYPWGN"
          }, {
            "label" : "REDWOOD FINE CUT",
            "subcate_code" : "REDWD"
          }, {
            "label" : "SILVER CREEK CHERRY",
            "subcate_code" : "SLCKCH"
          }, {
            "label" : "SILVER CREEK FINE CUT",
            "subcate_code" : "SLCKFC"
          }, {
            "label" : "SILVER CREEK L C STRAIGHT",
            "subcate_code" : "SLCKLS"
          }, {
            "label" : "SILVER CREEK LONG CUT",
            "subcate_code" : "SILCRK"
          }, {
            "label" : "SILVERADO WINTERGREEN",
            "subcate_code" : "SILWTR"
          } ]
        } ]
      } ]
    },
    "type" : "string",
    "isList" : true,
    "saveInPhonegap" : false
  }
}